.......
----------------------------------------------------------------------
Ran 7 tests in 0.001s

OK
Name                 Stmts   Miss Branch BrPart  Cover   Missing
----------------------------------------------------------------
Army.py                 41      9      6      0    72%   27, 33, 42, 48-51, 54-55
City.py                 38      3     20      0    91%   14, 17-18
Diplomacy.py            15      0      2      0   100%
DiplomacyHelper.py      28      0     18      0   100%
TestDiplomacy.py        36      0      0      0   100%
----------------------------------------------------------------
TOTAL                  158     12     46      0    91%
