...........
----------------------------------------------------------------------
Ran 11 tests in 0.002s

OK
Name               Stmts   Miss Branch BrPart  Cover   Missing
--------------------------------------------------------------
Diplomacy.py          70      0     40      1    99%   59->62
TestDiplomacy.py      63      0      2      0   100%
--------------------------------------------------------------
TOTAL                133      0     42      1    99%
