..............
----------------------------------------------------------------------
Ran 14 tests in 0.001s

OK
Name               Stmts   Miss Branch BrPart  Cover   Missing
--------------------------------------------------------------
Diplomacy.py         100      0     56      0   100%
TestDiplomacy.py      70      0      0      0   100%
--------------------------------------------------------------
TOTAL                170      0     56      0   100%
