............
----------------------------------------------------------------------
Ran 12 tests in 0.002s

OK
Name               Stmts   Miss Branch BrPart  Cover   Missing
--------------------------------------------------------------
Diplomacy.py          90      2     64      4    96%   41->31, 48, 64, 87->84
TestDiplomacy.py      54      0      2      0   100%
--------------------------------------------------------------
TOTAL                144      2     66      4    97%